[gd_scene load_steps=4 format=2]

[ext_resource path="res://art/bullet.png" type="Texture" id=1]
[ext_resource path="res://scripts/Bullet.gd" type="Script" id=2]

[sub_resource type="RectangleShape2D" id=1]
extents = Vector2( 16, 8 )

[node name="Bullet" type="KinematicBody2D"]
collision_layer = 4
collision_mask = 4
script = ExtResource( 2 )

[node name="Sprite" type="Sprite" parent="."]
scale = Vector2( 3, 3 )
z_index = 1
texture = ExtResource( 1 )

[node name="Collider" type="CollisionShape2D" parent="."]
shape = SubResource( 1 )
