[gd_scene load_steps=24 format=2]

[ext_resource path="res://resources/tileset1.tres" type="TileSet" id=1]
[ext_resource path="res://scenes/Player.tscn" type="PackedScene" id=2]
[ext_resource path="res://art/background.png" type="Texture" id=3]
[ext_resource path="res://scenes/Spikes.tscn" type="PackedScene" id=4]
[ext_resource path="res://scenes/HealthBar.tscn" type="PackedScene" id=5]
[ext_resource path="res://art/tileset1.png" type="Texture" id=6]

[sub_resource type="ConvexPolygonShape2D" id=1]
points = PoolVector2Array( 16, 4, 0, 4, 0, 0, 16, 0 )

[sub_resource type="ConvexPolygonShape2D" id=2]
points = PoolVector2Array( 4, 8, 0, 8, 0, 0, 4, 0 )

[sub_resource type="ConvexPolygonShape2D" id=3]
points = PoolVector2Array( 16, 8, 12, 8, 12, 0, 16, 0 )

[sub_resource type="ConvexPolygonShape2D" id=4]
points = PoolVector2Array( 16, 4, 0, 4, 0, 0, 16, 0 )

[sub_resource type="ConvexPolygonShape2D" id=5]
points = PoolVector2Array( 16, 4, 0, 4, 0, 0, 16, 0 )

[sub_resource type="ConvexPolygonShape2D" id=6]
points = PoolVector2Array( 16, 4, 0, 4, 0, 0, 16, 0 )

[sub_resource type="ConvexPolygonShape2D" id=7]
points = PoolVector2Array( 16, 16, 0, 16, 0, 12, 16, 12 )

[sub_resource type="ConvexPolygonShape2D" id=8]
points = PoolVector2Array( 16, 16, 0, 16, 0, 12, 16, 12 )

[sub_resource type="ConvexPolygonShape2D" id=9]
points = PoolVector2Array( 16, 16, 0, 16, 0, 12, 16, 12 )

[sub_resource type="ConvexPolygonShape2D" id=10]
points = PoolVector2Array( 16, 4, 0, 4, 0, 0, 16, 0 )

[sub_resource type="ConvexPolygonShape2D" id=11]
points = PoolVector2Array( 16, 4, 0, 4, 0, 0, 16, 0 )

[sub_resource type="ConvexPolygonShape2D" id=12]
points = PoolVector2Array( 16, 4, 0, 4, 0, 0, 16, 0 )

[sub_resource type="ConvexPolygonShape2D" id=13]
points = PoolVector2Array( 16, 4, 0, 4, 0, 0, 16, 0 )

[sub_resource type="ConvexPolygonShape2D" id=14]
points = PoolVector2Array( 16, 4, 0, 4, 0, 0, 16, 0 )

[sub_resource type="ConvexPolygonShape2D" id=15]
points = PoolVector2Array( 16, 4, 0, 4, 0, 0, 16, 0 )

[sub_resource type="ConvexPolygonShape2D" id=16]
points = PoolVector2Array( 16, 4, 0, 4, 0, 0, 16, 0 )

[sub_resource type="TileSet" id=17]
0/name = "tileset1.png 0"
0/texture = ExtResource( 6 )
0/tex_offset = Vector2( 0, 0 )
0/modulate = Color( 1, 1, 1, 1 )
0/region = Rect2( 80, 32, 48, 16 )
0/tile_mode = 2
0/autotile/icon_coordinate = Vector2( 0, 0 )
0/autotile/tile_size = Vector2( 16, 16 )
0/autotile/spacing = 0
0/autotile/occluder_map = [  ]
0/autotile/navpoly_map = [  ]
0/autotile/priority_map = [  ]
0/autotile/z_index_map = [  ]
0/occluder_offset = Vector2( 0, 0 )
0/navigation_offset = Vector2( 0, 0 )
0/shape_offset = Vector2( 0, 0 )
0/shape_transform = Transform2D( 1, 0, 0, 1, 0, 0 )
0/shape = SubResource( 1 )
0/shape_one_way = true
0/shape_one_way_margin = 1.0
0/shapes = [ {
"autotile_coord": Vector2( 2, 0 ),
"one_way": true,
"one_way_margin": 1.0,
"shape": SubResource( 1 ),
"shape_transform": Transform2D( 1, 0, 0, 1, 0, 0 )
}, {
"autotile_coord": Vector2( 1, 0 ),
"one_way": true,
"one_way_margin": 1.0,
"shape": SubResource( 2 ),
"shape_transform": Transform2D( 1, 0, 0, 1, 0, 0 )
}, {
"autotile_coord": Vector2( 0, 0 ),
"one_way": true,
"one_way_margin": 1.0,
"shape": SubResource( 3 ),
"shape_transform": Transform2D( 1, 0, 0, 1, 0, 0 )
} ]
0/z_index = 0
1/name = "tileset1.png 1"
1/texture = ExtResource( 6 )
1/tex_offset = Vector2( 0, 0 )
1/modulate = Color( 1, 1, 1, 1 )
1/region = Rect2( 80, 64, 48, 32 )
1/tile_mode = 2
1/autotile/icon_coordinate = Vector2( 0, 0 )
1/autotile/tile_size = Vector2( 16, 16 )
1/autotile/spacing = 0
1/autotile/occluder_map = [  ]
1/autotile/navpoly_map = [  ]
1/autotile/priority_map = [  ]
1/autotile/z_index_map = [  ]
1/occluder_offset = Vector2( 0, 0 )
1/navigation_offset = Vector2( 0, 0 )
1/shape_offset = Vector2( 0, 0 )
1/shape_transform = Transform2D( 1, 0, 0, 1, 0, 0 )
1/shape = SubResource( 4 )
1/shape_one_way = true
1/shape_one_way_margin = 1.0
1/shapes = [ {
"autotile_coord": Vector2( 0, 0 ),
"one_way": true,
"one_way_margin": 1.0,
"shape": SubResource( 4 ),
"shape_transform": Transform2D( 1, 0, 0, 1, 0, 0 )
}, {
"autotile_coord": Vector2( 1, 0 ),
"one_way": true,
"one_way_margin": 1.0,
"shape": SubResource( 5 ),
"shape_transform": Transform2D( 1, 0, 0, 1, 0, 0 )
}, {
"autotile_coord": Vector2( 2, 0 ),
"one_way": true,
"one_way_margin": 1.0,
"shape": SubResource( 6 ),
"shape_transform": Transform2D( 1, 0, 0, 1, 0, 0 )
}, {
"autotile_coord": Vector2( 0, 1 ),
"one_way": true,
"one_way_margin": 1.0,
"shape": SubResource( 7 ),
"shape_transform": Transform2D( 1, 0, 0, 1, 0, 0 )
}, {
"autotile_coord": Vector2( 1, 1 ),
"one_way": true,
"one_way_margin": 1.0,
"shape": SubResource( 8 ),
"shape_transform": Transform2D( 1, 0, 0, 1, 0, 0 )
}, {
"autotile_coord": Vector2( 2, 1 ),
"one_way": true,
"one_way_margin": 1.0,
"shape": SubResource( 9 ),
"shape_transform": Transform2D( 1, 0, 0, 1, 0, 0 )
} ]
1/z_index = 0
2/name = "tileset1.png 2"
2/texture = ExtResource( 6 )
2/tex_offset = Vector2( 0, 0 )
2/modulate = Color( 1, 1, 1, 1 )
2/region = Rect2( 16, 48, 112, 16 )
2/tile_mode = 2
2/autotile/icon_coordinate = Vector2( 0, 0 )
2/autotile/tile_size = Vector2( 16, 16 )
2/autotile/spacing = 0
2/autotile/occluder_map = [  ]
2/autotile/navpoly_map = [  ]
2/autotile/priority_map = [  ]
2/autotile/z_index_map = [  ]
2/occluder_offset = Vector2( 0, 0 )
2/navigation_offset = Vector2( 0, 0 )
2/shape_offset = Vector2( 0, 0 )
2/shape_transform = Transform2D( 1, 0, 0, 1, 0, 0 )
2/shape = SubResource( 10 )
2/shape_one_way = true
2/shape_one_way_margin = 1.0
2/shapes = [ {
"autotile_coord": Vector2( 1, 0 ),
"one_way": true,
"one_way_margin": 1.0,
"shape": SubResource( 10 ),
"shape_transform": Transform2D( 1, 0, 0, 1, 0, 0 )
}, {
"autotile_coord": Vector2( 0, 0 ),
"one_way": true,
"one_way_margin": 1.0,
"shape": SubResource( 11 ),
"shape_transform": Transform2D( 1, 0, 0, 1, 0, 0 )
}, {
"autotile_coord": Vector2( 2, 0 ),
"one_way": true,
"one_way_margin": 1.0,
"shape": SubResource( 12 ),
"shape_transform": Transform2D( 1, 0, 0, 1, 0, 0 )
}, {
"autotile_coord": Vector2( 3, 0 ),
"one_way": true,
"one_way_margin": 1.0,
"shape": SubResource( 13 ),
"shape_transform": Transform2D( 1, 0, 0, 1, 0, 0 )
}, {
"autotile_coord": Vector2( 4, 0 ),
"one_way": true,
"one_way_margin": 1.0,
"shape": SubResource( 14 ),
"shape_transform": Transform2D( 1, 0, 0, 1, 0, 0 )
}, {
"autotile_coord": Vector2( 5, 0 ),
"one_way": true,
"one_way_margin": 1.0,
"shape": SubResource( 15 ),
"shape_transform": Transform2D( 1, 0, 0, 1, 0, 0 )
}, {
"autotile_coord": Vector2( 6, 0 ),
"one_way": true,
"one_way_margin": 1.0,
"shape": SubResource( 16 ),
"shape_transform": Transform2D( 1, 0, 0, 1, 0, 0 )
} ]
2/z_index = 0

[node name="World" type="Node2D"]

[node name="GroundTileMap" type="TileMap" parent="."]
scale = Vector2( 4, 4 )
tile_set = ExtResource( 1 )
cell_size = Vector2( 16, 16 )
collision_layer = 5
format = 1
tile_data = PoolIntArray( -393262, 0, 0, -393261, 0, 0, -393260, 0, 0, -393259, 0, 0, -393258, 0, 0, -393257, 0, 0, -393256, 0, 0, -393255, 0, 0, -393254, 0, 0, -393253, 0, 0, -393252, 0, 0, -393251, 0, 0, -393250, 0, 0, -393249, 0, 0, -393248, 0, 0, -393247, 0, 0, -393246, 0, 0, -393245, 0, 0, -393244, 0, 0, -393243, 0, 0, -393242, 0, 0, -393241, 0, 0, -393240, 0, 0, -393239, 0, 0, -393238, 0, 0, -393237, 0, 0, -393236, 0, 0, -393235, 0, 0, -393234, 0, 0, -393233, 0, 0, -393232, 0, 0, -393231, 0, 0, -393230, 0, 0, -393229, 0, 0, -393228, 0, 0, -393227, 0, 0, -393226, 0, 0, -393225, 0, 0, -393224, 0, 0, -393223, 0, 0, -393222, 0, 0, -393221, 0, 0, -393220, 0, 0, -393219, 0, 0, -393218, 0, 0, -393217, 0, 0, -458752, 0, 0, -458751, 0, 0, -458750, 0, 0, -458749, 0, 0, -458748, 0, 0, -458747, 0, 0, -458746, 0, 0, -458745, 0, 0, -458744, 0, 0, -458743, 0, 0, -458742, 0, 0, -458741, 0, 0, -458740, 0, 0, -458739, 0, 0, -458738, 0, 0, -458737, 0, 0, -458736, 0, 0, -458735, 0, 0, -458734, 0, 0, -458733, 0, 0, -458732, 0, 0, -458731, 0, 0, -458730, 0, 0, -458729, 0, 0, -458728, 0, 0, -458727, 0, 0, -458726, 0, 0, -327726, 0, 0, -327725, 0, 0, -327724, 0, 0, -327723, 0, 0, -327722, 0, 0, -327721, 0, 0, -327720, 0, 0, -327719, 0, 0, -327718, 0, 0, -327717, 0, 0, -327716, 0, 0, -327715, 0, 0, -327714, 0, 0, -327713, 0, 0, -327712, 0, 0, -327711, 0, 0, -327710, 0, 0, -327709, 0, 0, -327708, 0, 0, -327707, 0, 0, -327706, 0, 0, -327705, 0, 0, -327704, 0, 0, -327703, 0, 0, -327702, 0, 0, -327701, 0, 0, -327700, 0, 0, -327699, 0, 0, -327698, 0, 0, -327697, 0, 0, -327696, 0, 0, -327695, 0, 0, -327694, 0, 0, -327693, 0, 0, -327692, 0, 0, -327691, 0, 0, -327690, 0, 0, -327689, 0, 0, -327688, 0, 0, -327687, 0, 0, -327686, 0, 0, -327685, 0, 0, -327684, 0, 0, -327683, 0, 0, -327682, 0, 0, -327681, 0, 0, -393216, 0, 0, -393215, 0, 0, -393214, 0, 0, -393213, 0, 0, -393212, 0, 0, -393211, 0, 0, -393210, 0, 0, -393209, 0, 0, -393208, 0, 0, -393207, 0, 0, -393206, 0, 0, -393205, 0, 0, -393204, 0, 0, -393203, 0, 0, -393202, 0, 0, -393201, 0, 0, -393200, 0, 0, -393199, 0, 0, -393198, 0, 0, -393197, 0, 0, -393196, 0, 0, -393195, 0, 0, -393194, 0, 0, -393193, 0, 0, -393192, 0, 0, -393191, 0, 0, -393190, 0, 0, -262190, 0, 0, -262189, 0, 0, -262188, 0, 0, -262187, 0, 0, -262186, 0, 0, -262185, 0, 0, -262184, 0, 0, -262183, 0, 0, -262182, 0, 0, -262181, 0, 0, -262180, 0, 0, -262179, 0, 0, -262178, 0, 0, -262177, 0, 0, -262176, 0, 0, -262175, 0, 0, -262174, 0, 0, -262173, 0, 0, -262172, 0, 0, -262171, 0, 0, -262170, 0, 0, -262169, 0, 0, -262168, 0, 0, -262167, 0, 0, -262166, 0, 0, -262165, 0, 0, -262164, 0, 0, -262163, 0, 0, -262162, 0, 0, -262161, 0, 0, -262160, 0, 0, -262159, 0, 0, -262158, 0, 0, -262157, 0, 0, -262156, 0, 0, -262155, 0, 0, -262154, 0, 0, -262153, 0, 0, -262152, 0, 0, -262151, 0, 0, -262150, 0, 0, -262149, 0, 0, -262148, 0, 0, -262147, 0, 0, -262146, 0, 0, -262145, 0, 0, -327680, 0, 0, -327679, 0, 0, -327678, 0, 0, -327677, 0, 0, -327676, 0, 0, -327675, 0, 0, -327674, 0, 0, -327673, 0, 0, -327672, 0, 0, -327671, 0, 0, -327670, 0, 0, -327669, 0, 0, -327668, 0, 0, -327667, 0, 0, -327666, 0, 0, -327665, 0, 0, -327664, 0, 0, -327663, 0, 0, -327662, 0, 0, -327661, 0, 0, -327660, 0, 0, -327659, 0, 0, -327658, 0, 0, -327657, 0, 0, -327656, 0, 0, -327655, 0, 0, -327654, 0, 0, -196654, 0, 0, -196653, 0, 0, -196652, 0, 0, -196651, 0, 0, -196650, 0, 0, -196649, 0, 0, -196648, 0, 0, -196647, 0, 0, -196646, 0, 0, -196645, 0, 0, -196644, 0, 0, -196643, 0, 0, -196642, 0, 0, -196641, 0, 0, -196640, 0, 0, -196639, 0, 0, -196638, 0, 0, -196637, 0, 0, -196636, 0, 0, -196635, 0, 0, -196634, 0, 0, -196633, 0, 0, -196632, 0, 0, -196631, 0, 0, -196630, 0, 0, -196629, 0, 0, -196628, 0, 0, -196627, 0, 0, -196626, 0, 0, -196625, 0, 0, -196624, 0, 0, -196623, 0, 0, -196622, 0, 0, -196621, 0, 0, -196620, 0, 0, -196619, 0, 0, -196618, 0, 0, -196617, 0, 0, -196616, 0, 0, -196615, 0, 0, -196614, 0, 0, -196613, 0, 0, -196612, 0, 0, -196611, 0, 0, -196610, 0, 0, -196609, 0, 0, -262144, 0, 0, -262143, 0, 0, -262142, 0, 0, -262141, 0, 0, -262140, 0, 0, -262139, 0, 0, -262138, 0, 0, -262137, 0, 0, -262136, 0, 0, -262135, 0, 0, -262134, 0, 0, -262133, 0, 0, -262132, 0, 0, -262131, 0, 0, -262130, 0, 0, -262129, 0, 0, -262128, 0, 0, -262127, 0, 0, -262126, 0, 0, -262125, 0, 0, -262124, 0, 0, -262123, 0, 0, -262122, 0, 0, -262121, 0, 0, -262120, 0, 0, -262119, 0, 0, -262118, 0, 0, -131118, 0, 0, -131117, 0, 0, -131116, 0, 0, -131115, 0, 0, -131114, 0, 0, -131113, 0, 0, -131112, 0, 0, -131111, 0, 0, -131110, 0, 0, -131109, 0, 0, -131108, 0, 0, -131107, 0, 0, -131106, 0, 0, -131105, 0, 0, -131104, 0, 0, -131103, 0, 0, -131102, 0, 0, -131101, 0, 0, -131100, 0, 0, -131099, 0, 0, -131098, 0, 0, -131097, 0, 0, -131096, 0, 0, -131095, 0, 0, -131094, 0, 0, -131093, 0, 0, -131092, 0, 0, -131091, 0, 0, -131090, 0, 0, -131089, 0, 0, -131088, 0, 0, -131087, 0, 0, -131086, 0, 0, -131085, 0, 0, -131084, 0, 0, -131083, 0, 0, -131082, 0, 0, -131081, 0, 0, -131080, 0, 0, -131079, 0, 0, -131078, 0, 0, -131077, 0, 0, -131076, 0, 0, -131075, 0, 0, -131074, 0, 0, -131073, 0, 0, -196608, 0, 0, -196607, 0, 0, -196606, 0, 0, -196605, 0, 0, -196604, 0, 0, -196603, 0, 0, -196602, 0, 0, -196601, 0, 0, -196600, 0, 0, -196599, 0, 0, -196598, 0, 0, -196597, 0, 0, -196596, 0, 0, -196595, 0, 0, -196594, 0, 0, -196593, 0, 0, -196592, 0, 0, -196591, 0, 0, -196590, 0, 0, -196589, 0, 0, -196588, 0, 0, -196587, 0, 0, -196586, 0, 0, -196585, 0, 0, -196584, 0, 0, -196583, 0, 0, -196582, 0, 0, -65582, 0, 0, -65581, 0, 0, -65580, 0, 0, -65579, 0, 0, -65578, 0, 0, -65577, 0, 0, -65576, 0, 0, -65575, 0, 0, -65574, 0, 0, -65573, 0, 0, -65572, 0, 0, -65571, 0, 0, -65570, 0, 327683, -65569, 0, 262146, -65568, 0, 262146, -65567, 0, 262146, -65566, 0, 262146, -65565, 0, 262146, -65564, 0, 262146, -65563, 0, 262146, -65562, 0, 262146, -65561, 0, 262146, -65560, 0, 262146, -65559, 0, 262146, -65558, 0, 262146, -65557, 0, 262146, -65556, 0, 262146, -65555, 0, 262146, -65554, 0, 262146, -65553, 0, 262146, -65552, 0, 262146, -65551, 0, 262146, -65550, 0, 262146, -65549, 0, 262146, -65548, 0, 262146, -65547, 0, 262146, -65546, 0, 262146, -65545, 0, 262146, -65544, 0, 262146, -65543, 0, 262146, -65542, 0, 262146, -65541, 0, 262146, -65540, 0, 262146, -65539, 0, 262146, -65538, 0, 262146, -65537, 0, 262146, -131072, 0, 262146, -131071, 0, 262146, -131070, 0, 262146, -131069, 0, 262146, -131068, 0, 262146, -131067, 0, 262146, -131066, 0, 262146, -131065, 0, 262146, -131064, 0, 262146, -131063, 0, 262146, -131062, 0, 262146, -131061, 0, 262146, -131060, 0, 262146, -131059, 0, 262146, -131058, 0, 262146, -131057, 0, 262146, -131056, 0, 327684, -131055, 0, 0, -131054, 0, 0, -131053, 0, 0, -131052, 0, 0, -131051, 0, 0, -131050, 0, 0, -131049, 0, 0, -131048, 0, 0, -131047, 0, 0, -131046, 0, 0, -46, 0, 0, -45, 0, 0, -44, 0, 0, -43, 0, 0, -42, 0, 0, -41, 0, 0, -40, 0, 0, -39, 0, 0, -38, 0, 0, -37, 0, 0, -36, 0, 0, -35, 0, 0, -34, 0, 262148, -65520, 0, 262147, -65519, 0, 0, -65518, 0, 0, -65517, 0, 0, -65516, 0, 0, -65515, 0, 0, -65514, 0, 0, -65513, 0, 0, -65512, 0, 0, -65511, 0, 0, -65510, 0, 0, 65490, 0, 0, 65491, 0, 0, 65492, 0, 0, 65493, 0, 0, 65494, 0, 0, 65495, 0, 0, 65496, 0, 0, 65497, 0, 0, 65498, 0, 0, 65499, 0, 0, 65500, 0, 0, 65501, 0, 0, 65502, 0, 262148, 16, 0, 262147, 17, 0, 0, 18, 0, 0, 19, 0, 0, 20, 0, 0, 21, 0, 0, 22, 0, 0, 23, 0, 0, 24, 0, 0, 25, 0, 0, 26, 0, 0, 131026, 0, 0, 131027, 0, 0, 131028, 0, 0, 131029, 0, 0, 131030, 0, 0, 131031, 0, 0, 131032, 0, 0, 131033, 0, 0, 131034, 0, 0, 131035, 0, 0, 131036, 0, 262144, 131037, 0, 0, 131038, 0, 262148, 131041, 0, 524289, 131042, 0, 262145, 131043, 0, 262145, 131044, 0, 524288, 65552, 0, 262147, 65553, 0, 0, 65554, 0, 0, 65555, 0, 0, 65556, 0, 0, 65557, 0, 0, 65558, 0, 0, 65559, 0, 0, 65560, 0, 0, 65561, 0, 0, 65562, 0, 0, 196562, 0, 0, 196563, 0, 0, 196564, 0, 0, 196565, 0, 0, 196566, 0, 0, 196567, 0, 0, 196568, 0, 0, 196569, 0, 0, 196570, 0, 0, 196571, 0, 0, 196572, 0, 0, 196573, 0, 0, 196574, 0, 262148, 196577, 0, 262147, 196578, 0, 0, 196579, 0, 0, 196580, 0, 262148, 196582, 0, 393217, 196604, 0, 458759, 196605, 0, 393223, 131075, 0, 458759, 131076, 0, 458755, 131077, 0, 458752, 131078, 0, 458754, 131082, 0, 458755, 131088, 0, 262147, 131089, 0, 262144, 131090, 0, 0, 131091, 0, 0, 131092, 0, 0, 131093, 0, 0, 131094, 0, 0, 131095, 0, 0, 131096, 0, 0, 131097, 0, 0, 131098, 0, 0, 262098, 0, 0, 262099, 0, 0, 262100, 0, 0, 262101, 0, 0, 262102, 0, 0, 262103, 0, 0, 262104, 0, 0, 262105, 0, 0, 262106, 0, 0, 262107, 0, 0, 262108, 0, 0, 262109, 0, 0, 262110, 0, 262148, 262113, 0, 262147, 262114, 0, 0, 262115, 0, 262144, 262116, 0, 262148, 262118, 0, 393219, 196619, 0, 393216, 196624, 0, 262147, 196625, 0, 0, 196626, 0, 0, 196627, 0, 0, 196628, 0, 0, 196629, 0, 0, 196630, 0, 0, 196631, 0, 0, 196632, 0, 0, 196633, 0, 0, 196634, 0, 0, 327634, 0, 0, 327635, 0, 0, 327636, 0, 0, 327637, 0, 0, 327638, 0, 0, 327639, 0, 0, 327640, 0, 0, 327641, 0, 0, 327642, 0, 0, 327643, 0, 0, 327644, 0, 0, 327645, 0, 0, 327646, 0, 262148, 327649, 0, 262147, 327650, 0, 0, 327651, 0, 0, 327652, 0, 262148, 327654, 0, 393219, 262160, 0, 262147, 262161, 0, 0, 262162, 0, 0, 262163, 0, 0, 262164, 0, 0, 262165, 0, 0, 262166, 0, 0, 262167, 0, 0, 262168, 0, 0, 262169, 0, 0, 262170, 0, 0, 393170, 0, 0, 393171, 0, 0, 393172, 0, 0, 393173, 0, 0, 393174, 0, 0, 393175, 0, 0, 393176, 0, 0, 393177, 0, 0, 393178, 0, 0, 393179, 0, 0, 393180, 0, 0, 393181, 0, 0, 393182, 0, 262148, 393185, 0, 262147, 393186, 0, 0, 393187, 0, 0, 393188, 0, 262148, 393190, 0, 393218, 393192, 0, 393217, 393193, 0, 393217, 393195, 0, 458754, 327686, 0, 458758, 327687, 0, 458755, 327692, 0, 393216, 327693, 0, 393217, 327695, 0, 393217, 327696, 0, 262147, 327697, 0, 0, 327698, 0, 0, 327699, 0, 0, 327700, 0, 0, 327701, 0, 0, 327702, 0, 0, 327703, 0, 0, 327704, 0, 0, 327705, 0, 0, 327706, 0, 0, 458706, 0, 0, 458707, 0, 0, 458708, 0, 0, 458709, 0, 0, 458710, 0, 0, 458711, 0, 0, 458712, 0, 0, 458713, 0, 0, 458714, 0, 0, 458715, 0, 0, 458716, 0, 0, 458717, 0, 0, 458718, 0, 262148, 458721, 0, 262147, 458722, 0, 0, 458723, 0, 0, 458724, 0, 327682, 458725, 0, 262145, 458726, 0, 524288, 458728, 0, 393218, 458729, 0, 393218, 458733, 0, 327680, 458739, 0, 458754, 458740, 0, 458753, 458743, 0, 458752, 458748, 0, 458752, 458749, 0, 458756, 458750, 0, 393221, 458751, 0, 393221, 393216, 0, 327680, 393217, 0, 458759, 393219, 0, 458753, 393220, 0, 458757, 393221, 0, 6, 393222, 0, 65537, 393223, 0, 65538, 393229, 0, 393219, 393231, 0, 393219, 393232, 0, 262147, 393233, 0, 0, 393234, 0, 0, 393235, 0, 0, 393236, 0, 0, 393237, 0, 0, 393238, 0, 0, 393239, 0, 0, 393240, 0, 0, 393241, 0, 0, 393242, 0, 0, 524242, 0, 0, 524243, 0, 0, 524244, 0, 0, 524245, 0, 0, 524246, 0, 0, 524247, 0, 0, 524248, 0, 0, 524249, 0, 0, 524250, 0, 0, 524251, 0, 0, 524252, 0, 0, 524253, 0, 0, 524254, 0, 262148, 524257, 0, 262147, 524258, 0, 0, 524259, 0, 0, 524260, 0, 0, 524261, 0, 262144, 524262, 0, 327682, 524263, 0, 262145, 524264, 0, 262145, 524265, 0, 524288, 524269, 0, 3, 524270, 0, 7, 524271, 0, 393223, 524272, 0, 393216, 524273, 0, 458755, 524275, 0, 65539, 524276, 0, 2, 524277, 0, 7, 524281, 0, 393223, 524282, 0, 458758, 524284, 0, 65539, 524285, 0, 3, 524286, 0, 2, 524287, 0, 1, 458752, 0, 65539, 458753, 0, 65538, 458754, 0, 1, 458755, 0, 3, 458756, 0, 2, 458757, 0, 65542, 458758, 0, 0, 458759, 0, 65536, 458760, 0, 393221, 458761, 0, 327680, 458762, 0, 393223, 458763, 0, 4, 458764, 0, 131076, 458765, 0, 393218, 458767, 0, 393218, 458768, 0, 262147, 458769, 0, 0, 458770, 0, 0, 458771, 0, 0, 458772, 0, 0, 458773, 0, 0, 458774, 0, 0, 458775, 0, 0, 458776, 0, 0, 458777, 0, 0, 458778, 0, 0, 589778, 0, 0, 589779, 0, 0, 589780, 0, 0, 589781, 0, 0, 589782, 0, 0, 589783, 0, 0, 589784, 0, 0, 589785, 0, 0, 589786, 0, 0, 589787, 0, 0, 589788, 0, 0, 589789, 0, 0, 589790, 0, 262148, 589793, 0, 262147, 589794, 0, 0, 589795, 0, 0, 589796, 0, 0, 589797, 0, 0, 589798, 0, 0, 589799, 0, 0, 589800, 0, 0, 589801, 0, 327682, 589802, 0, 262145, 589803, 0, 262145, 589804, 0, 262145, 589805, 0, 65536, 589806, 0, 65541, 589807, 0, 65537, 589808, 0, 65538, 589809, 0, 2, 589810, 0, 3, 589811, 0, 0, 589812, 0, 0, 589813, 0, 65543, 589814, 0, 5, 589815, 0, 458752, 589817, 0, 3, 589818, 0, 65537, 589819, 0, 65538, 589820, 0, 0, 589821, 0, 0, 589822, 0, 0, 589823, 0, 0, 524288, 0, 0, 524289, 0, 196608, 524290, 0, 0, 524291, 0, 0, 524292, 0, 0, 524293, 0, 0, 524294, 0, 0, 524295, 0, 0, 524296, 0, 3, 524297, 0, 1, 524298, 0, 65539, 524299, 0, 65540, 524300, 0, 0, 524301, 0, 262145, 524302, 0, 262145, 524303, 0, 262145, 524304, 0, 327681, 524305, 0, 0, 524306, 0, 0, 524307, 0, 0, 524308, 0, 0, 524309, 0, 0, 524310, 0, 0, 524311, 0, 0, 524312, 0, 0, 524313, 0, 0, 524314, 0, 0, 655314, 0, 0, 655315, 0, 0, 655316, 0, 0, 655317, 0, 0, 655318, 0, 0, 655319, 0, 0, 655320, 0, 0, 655321, 0, 0, 655322, 0, 0, 655323, 0, 0, 655324, 0, 0, 655325, 0, 0, 655326, 0, 262148, 655329, 0, 262147, 655330, 0, 0, 655331, 0, 0, 655332, 0, 0, 655333, 0, 0, 655334, 0, 0, 655335, 0, 0, 655336, 0, 0, 655337, 0, 0, 655338, 0, 262144, 655339, 0, 0, 655340, 0, 0, 655341, 0, 0, 655342, 0, 0, 655343, 0, 0, 655344, 0, 131072, 655345, 0, 0, 655346, 0, 0, 655347, 0, 0, 655348, 0, 0, 655349, 0, 131072, 655350, 0, 65541, 655351, 0, 65537, 655352, 0, 2, 655353, 0, 196608, 655354, 0, 0, 655355, 0, 0, 655356, 0, 0, 655357, 0, 131072, 655358, 0, 0, 655359, 0, 0, 589824, 0, 0, 589825, 0, 0, 589826, 0, 0, 589827, 0, 0, 589828, 0, 0, 589829, 0, 0, 589830, 0, 0, 589831, 0, 0, 589832, 0, 0, 589833, 0, 0, 589834, 0, 0, 589835, 0, 0, 589836, 0, 131072, 589837, 0, 0, 589838, 0, 0, 589839, 0, 262144, 589840, 0, 0, 589841, 0, 0, 589842, 0, 0, 589843, 0, 0, 589844, 0, 0, 589845, 0, 0, 589846, 0, 0, 589847, 0, 0, 589848, 0, 0, 589849, 0, 0, 589850, 0, 0, 720850, 0, 0, 720851, 0, 0, 720852, 0, 0, 720853, 0, 0, 720854, 0, 0, 720855, 0, 0, 720856, 0, 0, 720857, 0, 0, 720858, 0, 0, 720859, 0, 0, 720860, 0, 0, 720861, 0, 262144, 720862, 0, 262148, 720863, 0, 262150, 720864, 0, 262150, 720865, 0, 262147, 720866, 0, 0, 720867, 0, 0, 720868, 0, 0, 720869, 0, 0, 720870, 0, 0, 720871, 0, 0, 720872, 0, 0, 720873, 0, 0, 720874, 0, 0, 720875, 0, 0, 720876, 0, 0, 720877, 0, 0, 720878, 0, 0, 720879, 0, 0, 720880, 0, 0, 720881, 0, 0, 720882, 0, 0, 720883, 0, 0, 720884, 0, 0, 720885, 0, 0, 720886, 0, 0, 720887, 0, 0, 720888, 0, 0, 720889, 0, 0, 720890, 0, 0, 720891, 0, 0, 720892, 0, 0, 720893, 0, 0, 720894, 0, 0, 720895, 0, 0, 655360, 0, 0, 655361, 0, 0, 655362, 0, 0, 655363, 0, 0, 655364, 0, 0, 655365, 0, 0, 655366, 0, 0, 655367, 0, 196608, 655368, 0, 0, 655369, 0, 0, 655370, 0, 0, 655371, 0, 0, 655372, 0, 0, 655373, 0, 0, 655374, 0, 0, 655375, 0, 0, 655376, 0, 0, 655377, 0, 0, 655378, 0, 0, 655379, 0, 0, 655380, 0, 0, 655381, 0, 0, 655382, 0, 0, 655383, 0, 0, 655384, 0, 0, 655385, 0, 0, 655386, 0, 0, 786386, 0, 0, 786387, 0, 0, 786388, 0, 0, 786389, 0, 0, 786390, 0, 0, 786391, 0, 0, 786392, 0, 0, 786393, 0, 0, 786394, 0, 0, 786395, 0, 0, 786396, 0, 0, 786397, 0, 0, 786398, 0, 262148, 786401, 0, 262147, 786402, 0, 0, 786403, 0, 0, 786404, 0, 0, 786405, 0, 0, 786406, 0, 0, 786407, 0, 0, 786408, 0, 0, 786409, 0, 0, 786410, 0, 0, 786411, 0, 0, 786412, 0, 0, 786413, 0, 0, 786414, 0, 0, 786415, 0, 0, 786416, 0, 0, 786417, 0, 0, 786418, 0, 0, 786419, 0, 0, 786420, 0, 0, 786421, 0, 0, 786422, 0, 0, 786423, 0, 0, 786424, 0, 0, 786425, 0, 0, 786426, 0, 0, 786427, 0, 0, 786428, 0, 0, 786429, 0, 0, 786430, 0, 0, 786431, 0, 0, 720896, 0, 0, 720897, 0, 0, 720898, 0, 0, 720899, 0, 0, 720900, 0, 0, 720901, 0, 0, 720902, 0, 0, 720903, 0, 0, 720904, 0, 0, 720905, 0, 0, 720906, 0, 0, 720907, 0, 0, 720908, 0, 0, 720909, 0, 0, 720910, 0, 0, 720911, 0, 0, 720912, 0, 0, 720913, 0, 0, 720914, 0, 0, 720915, 0, 0, 720916, 0, 0, 720917, 0, 0, 720918, 0, 0, 720919, 0, 0, 720920, 0, 0, 720921, 0, 0, 720922, 0, 0, 851922, 0, 0, 851923, 0, 0, 851924, 0, 0, 851925, 0, 0, 851926, 0, 0, 851927, 0, 0, 851928, 0, 0, 851929, 0, 0, 851930, 0, 0, 851931, 0, 0, 851932, 0, 0, 851933, 0, 0, 851934, 0, 262148, 851937, 0, 262147, 851938, 0, 0, 851939, 0, 262144, 851940, 0, 0, 851941, 0, 0, 851942, 0, 0, 851943, 0, 0, 851944, 0, 0, 851945, 0, 0, 851946, 0, 0, 851947, 0, 0, 851948, 0, 0, 851949, 0, 0, 851950, 0, 0, 851951, 0, 0, 851952, 0, 0, 851953, 0, 0, 851954, 0, 0, 851955, 0, 0, 851956, 0, 0, 851957, 0, 0, 851958, 0, 0, 851959, 0, 0, 851960, 0, 0, 851961, 0, 0, 851962, 0, 0, 851963, 0, 0, 851964, 0, 0, 851965, 0, 0, 851966, 0, 0, 851967, 0, 0, 786432, 0, 0, 786433, 0, 0, 786434, 0, 0, 786435, 0, 0, 786436, 0, 0, 786437, 0, 0, 786438, 0, 0, 786439, 0, 0, 786440, 0, 0, 786441, 0, 0, 786442, 0, 0, 786443, 0, 0, 786444, 0, 262144, 786445, 0, 0, 786446, 0, 0, 786447, 0, 0, 786448, 0, 0, 786449, 0, 0, 786450, 0, 0, 786451, 0, 0, 786452, 0, 0, 786453, 0, 0, 786454, 0, 0, 786455, 0, 0, 786456, 0, 0, 786457, 0, 0, 786458, 0, 0, 917458, 0, 0, 917459, 0, 0, 917460, 0, 0, 917461, 0, 0, 917462, 0, 0, 917463, 0, 0, 917464, 0, 0, 917465, 0, 0, 917466, 0, 0, 917467, 0, 0, 917468, 0, 327683, 917469, 0, 262146, 917470, 0, 524290, 917473, 0, 524291, 917474, 0, 262146, 917475, 0, 262146, 917476, 0, 262146, 917477, 0, 262146, 917478, 0, 262146, 917479, 0, 262146, 917480, 0, 262146, 917481, 0, 262146, 917482, 0, 262146, 917483, 0, 262146, 917484, 0, 262146, 917485, 0, 262146, 917486, 0, 262146, 917487, 0, 262146, 917488, 0, 262146, 917489, 0, 262146, 917490, 0, 262146, 917491, 0, 262146, 917492, 0, 327684, 917493, 0, 0, 917494, 0, 0, 917495, 0, 0, 917496, 0, 0, 917497, 0, 0, 917498, 0, 262144, 917499, 0, 0, 917500, 0, 0, 917501, 0, 0, 917502, 0, 0, 917503, 0, 0, 851968, 0, 0, 851969, 0, 0, 851970, 0, 0, 851971, 0, 0, 851972, 0, 0, 851973, 0, 0, 851974, 0, 0, 851975, 0, 0, 851976, 0, 0, 851977, 0, 0, 851978, 0, 0, 851979, 0, 0, 851980, 0, 0, 851981, 0, 0, 851982, 0, 0, 851983, 0, 0, 851984, 0, 0, 851985, 0, 0, 851986, 0, 0, 851987, 0, 0, 851988, 0, 0, 851989, 0, 0, 851990, 0, 0, 851991, 0, 0, 851992, 0, 0, 851993, 0, 0, 851994, 0, 0, 982994, 0, 0, 982995, 0, 0, 982996, 0, 0, 982997, 0, 0, 982998, 0, 0, 982999, 0, 0, 983000, 0, 0, 983001, 0, 0, 983002, 0, 0, 983003, 0, 0, 983004, 0, 262148, 983028, 0, 524291, 983029, 0, 262146, 983030, 0, 262146, 983031, 0, 262146, 983032, 0, 262146, 983033, 0, 262146, 983034, 0, 262146, 983035, 0, 262146, 983036, 0, 262146, 983037, 0, 262146, 983038, 0, 262146, 983039, 0, 262146, 917504, 0, 262146, 917505, 0, 262146, 917506, 0, 262146, 917507, 0, 262146, 917508, 0, 262146, 917509, 0, 262146, 917510, 0, 262146, 917511, 0, 262146, 917512, 0, 262146, 917513, 0, 262146, 917514, 0, 262146, 917515, 0, 262146, 917516, 0, 262146, 917517, 0, 262146, 917518, 0, 262146, 917519, 0, 262146, 917520, 0, 262146, 917521, 0, 262146, 917522, 0, 262146, 917523, 0, 262146, 917524, 0, 262146, 917525, 0, 262146, 917526, 0, 262146, 917527, 0, 262146, 1048530, 0, 0, 1048531, 0, 0, 1048532, 0, 0, 1048533, 0, 0, 1048534, 0, 0, 1048535, 0, 0, 1048536, 0, 0, 1048537, 0, 0, 1048538, 0, 0, 1048539, 0, 262144, 1048540, 0, 262148, 1114066, 0, 0, 1114067, 0, 0, 1114068, 0, 0, 1114069, 0, 0, 1114070, 0, 0, 1114071, 0, 0, 1114072, 0, 0, 1114073, 0, 0, 1114074, 0, 0, 1114075, 0, 0, 1114076, 0, 262148, 1179602, 0, 0, 1179603, 0, 0, 1179604, 0, 0, 1179605, 0, 0, 1179606, 0, 0, 1179607, 0, 0, 1179608, 0, 0, 1179609, 0, 0, 1179610, 0, 0, 1179611, 0, 0, 1179612, 0, 262148, 1179613, 0, 458756, 1179615, 0, 393223, 1179616, 0, 458755, 1179618, 0, 327680, 1179619, 0, 393222, 1179626, 0, 327680, 1179645, 0, 458755, 1179646, 0, 327680, 1179647, 0, 458753, 1114113, 0, 327680, 1114114, 0, 393222, 1114116, 0, 393221, 1114118, 0, 393216, 1114119, 0, 393223, 1114120, 0, 458752, 1114121, 0, 458754, 1245138, 0, 65537, 1245139, 0, 65537, 1245140, 0, 65537, 1245141, 0, 65538, 1245142, 0, 2, 1245143, 0, 3, 1245144, 0, 1, 1245145, 0, 65537, 1245146, 0, 65538, 1245147, 0, 65539, 1245148, 0, 3, 1245149, 0, 1, 1245150, 0, 2, 1245151, 0, 65538, 1245152, 0, 65539, 1245153, 0, 3, 1245154, 0, 65537, 1245155, 0, 65538, 1245156, 0, 1, 1245158, 0, 458753, 1245160, 0, 458754, 1245161, 0, 6, 1245162, 0, 2, 1245163, 0, 5, 1245165, 0, 458759, 1245167, 0, 458758, 1245168, 0, 393216, 1245174, 0, 458752, 1245175, 0, 458756, 1245177, 0, 458759, 1245178, 0, 458752, 1245179, 0, 458754, 1245180, 0, 6, 1245181, 0, 2, 1245182, 0, 65538, 1245183, 0, 65537, 1179648, 0, 2, 1179649, 0, 3, 1179650, 0, 1, 1179651, 0, 65538, 1179652, 0, 65539, 1179653, 0, 65537, 1179654, 0, 3, 1179655, 0, 2, 1179656, 0, 65538, 1179657, 0, 65537, 1310674, 0, 0, 1310675, 0, 0, 1310676, 0, 0, 1310677, 0, 0, 1310678, 0, 0, 1310679, 0, 0, 1310680, 0, 131072, 1310681, 0, 0, 1310682, 0, 0, 1310683, 0, 0, 1310684, 0, 0, 1310685, 0, 0, 1310686, 0, 0, 1310687, 0, 0, 1310688, 0, 196608, 1310689, 0, 0, 1310690, 0, 0, 1310691, 0, 0, 1310692, 0, 0, 1310693, 0, 2, 1310694, 0, 3, 1310695, 0, 65537, 1310696, 0, 1, 1310697, 0, 65540, 1310698, 0, 65536, 1310699, 0, 65541, 1310700, 0, 3, 1310701, 0, 2, 1310702, 0, 65537, 1310703, 0, 65539, 1310704, 0, 65538, 1310711, 0, 1, 1310712, 0, 65537, 1310713, 0, 65539, 1310714, 0, 65538, 1310715, 0, 3, 1310716, 0, 65542, 1310717, 0, 0, 1310718, 0, 65536, 1310719, 0, 0, 1245184, 0, 0, 1245185, 0, 0, 1245186, 0, 0, 1245187, 0, 0, 1245188, 0, 0, 1245189, 0, 196608, 1245190, 0, 0, 1245191, 0, 0, 1245192, 0, 0, 1245193, 0, 131072, 1376210, 0, 0, 1376211, 0, 0, 1376212, 0, 0, 1376213, 0, 0, 1376214, 0, 0, 1376215, 0, 0, 1376216, 0, 0, 1376217, 0, 0, 1376218, 0, 0, 1376219, 0, 0, 1376220, 0, 0, 1376221, 0, 65536, 1376222, 0, 0, 1376223, 0, 0, 1376224, 0, 0, 1376225, 0, 0, 1376226, 0, 0, 1376227, 0, 0, 1376228, 0, 0, 1376229, 0, 0, 1376230, 0, 0, 1376231, 0, 0, 1376232, 0, 0, 1376233, 0, 0, 1376234, 0, 0, 1376235, 0, 0, 1376236, 0, 0, 1376237, 0, 0, 1376238, 0, 0, 1376239, 0, 0, 1376240, 0, 0, 1376247, 0, 0, 1376248, 0, 0, 1376249, 0, 196608, 1376250, 0, 0, 1376251, 0, 0, 1376252, 0, 0, 1376253, 0, 0, 1376254, 0, 0, 1376255, 0, 0, 1310720, 1073741824, 0, 1310721, 1073741824, 0, 1310722, 1073741824, 0, 1310723, 1073741824, 0, 1310724, 1073741824, 0, 1310725, 1073741824, 0, 1310726, 1073741824, 0, 1310727, 1073741824, 0, 1310728, 1073741824, 0, 1310729, 1073741824, 0, 1441746, 0, 0, 1441747, 0, 0, 1441748, 0, 0, 1441749, 0, 0, 1441750, 0, 0, 1441751, 0, 0, 1441752, 0, 0, 1441753, 0, 0, 1441754, 0, 0, 1441755, 0, 0, 1441756, 0, 0, 1441757, 0, 0, 1441758, 0, 0, 1441759, 0, 0, 1441760, 0, 0, 1441761, 0, 0, 1441762, 0, 0, 1441763, 0, 0, 1441764, 0, 0, 1441765, 0, 0, 1441766, 0, 0, 1441767, 0, 0, 1441768, 0, 0, 1441769, 0, 0, 1441770, 0, 0, 1441771, 0, 0, 1441772, 0, 0, 1441773, 0, 0, 1441774, 0, 0, 1441775, 0, 0, 1441776, 0, 0, 1441783, 0, 0, 1441784, 0, 0, 1441785, 0, 0, 1441786, 0, 0, 1441787, 0, 0, 1441788, 0, 0, 1441789, 0, 0, 1441790, 0, 0, 1441791, 0, 0, 1376256, 1073741824, 0, 1376257, 1073741824, 0, 1376258, 1073741824, 0, 1376259, 1073741824, 0, 1376260, 1073741824, 0, 1376261, 1073741824, 0, 1376262, 1073741824, 0, 1376263, 1073741824, 0, 1376264, 1073741824, 0, 1376265, 1073741824, 0, 1507282, 0, 0, 1507283, 0, 0, 1507284, 0, 0, 1507285, 0, 0, 1507286, 0, 0, 1507287, 0, 0, 1507288, 0, 0, 1507289, 0, 0, 1507290, 0, 0, 1507291, 0, 0, 1507292, 0, 0, 1507293, 0, 0, 1507294, 0, 0, 1507295, 0, 0, 1507296, 0, 0, 1507297, 0, 0, 1507298, 0, 0, 1507299, 0, 0, 1507300, 0, 0, 1507301, 0, 0, 1507302, 0, 0, 1507303, 0, 0, 1507304, 0, 0, 1507305, 0, 0, 1507306, 0, 0, 1507307, 0, 0, 1507308, 0, 0, 1507309, 0, 0, 1507310, 0, 0, 1507311, 0, 0, 1507312, 0, 196608, 1507319, 0, 0, 1507320, 0, 0, 1507321, 0, 0, 1507322, 0, 0, 1507323, 0, 0, 1507324, 0, 0, 1507325, 0, 0, 1507326, 0, 0, 1507327, 1073741824, 0, 1441792, 1073741824, 0, 1441793, 1073741824, 0, 1441794, 1073741824, 0, 1441795, 1073741824, 0, 1441796, 1073741824, 0, 1441797, 1073741824, 0, 1441798, 1073741824, 0, 1441799, 1073741824, 0, 1441800, 1073741824, 0, 1441801, 1073741824, 0, 1572818, 0, 0, 1572819, 0, 0, 1572820, 0, 0, 1572821, 0, 0, 1572822, 0, 0, 1572823, 0, 0, 1572824, 0, 0, 1572825, 0, 0, 1572826, 0, 0, 1572827, 0, 0, 1572828, 0, 0, 1572829, 0, 0, 1572830, 0, 0, 1572831, 0, 0, 1572832, 0, 0, 1572833, 0, 0, 1572834, 0, 0, 1572835, 0, 0, 1572836, 0, 0, 1572837, 0, 0, 1572838, 0, 0, 1572839, 0, 0, 1572840, 0, 0, 1572841, 0, 0, 1572842, 0, 0, 1572843, 0, 0, 1572844, 0, 0, 1572845, 0, 0, 1572846, 0, 0, 1572847, 0, 0, 1572848, 0, 0, 1572849, 0, 393223, 1572855, 0, 0, 1572856, 0, 0, 1572857, 0, 0, 1572858, 0, 0, 1572859, 0, 0, 1572860, 0, 0, 1572861, 0, 0, 1572862, 0, 0, 1572863, 0, 0, 1507328, 1073741824, 0, 1507329, 1073741824, 0, 1507330, 1073741824, 0, 1507331, 1073741824, 0, 1507332, 1073741824, 0, 1507333, 1073741824, 0, 1507334, 1073741824, 0, 1507335, 1073741824, 0, 1507336, 1073741824, 0, 1507337, 1073741824, 0, 1638354, 0, 0, 1638355, 0, 0, 1638356, 0, 0, 1638357, 0, 0, 1638358, 0, 0, 1638359, 0, 0, 1638360, 0, 0, 1638361, 0, 0, 1638362, 0, 0, 1638363, 0, 0, 1638364, 0, 0, 1638365, 0, 0, 1638366, 0, 0, 1638367, 0, 0, 1638368, 0, 0, 1638369, 0, 0, 1638370, 0, 0, 1638371, 0, 0, 1638372, 0, 0, 1638373, 0, 0, 1638374, 0, 0, 1638375, 0, 0, 1638376, 0, 0, 1638377, 0, 0, 1638378, 0, 0, 1638379, 0, 0, 1638380, 0, 0, 1638381, 0, 0, 1638382, 0, 0, 1638383, 0, 0, 1638384, 0, 0, 1638385, 0, 3, 1638388, 0, 393221, 1638389, 0, 458752, 1638390, 0, 458757, 1638391, 0, 0, 1638392, 0, 0, 1638393, 0, 0, 1638394, 0, 0, 1638395, 0, 0, 1638396, 0, 0, 1638397, 0, 0, 1638398, 0, 0, 1638399, 0, 0, 1572864, 1073741824, 0, 1572865, 1073741824, 0, 1572866, 1073741824, 0, 1572867, 1073741824, 0, 1572868, 1073741824, 0, 1572869, 1073741824, 0, 1572870, 1073741824, 0, 1572871, 1073741824, 0, 1572872, 1073741824, 0, 1572873, 1073741824, 0, 1703890, 0, 0, 1703891, 0, 0, 1703892, 0, 0, 1703893, 0, 0, 1703894, 0, 0, 1703895, 0, 0, 1703896, 0, 0, 1703897, 0, 0, 1703898, 0, 0, 1703899, 0, 0, 1703900, 0, 0, 1703901, 0, 0, 1703902, 0, 0, 1703903, 0, 0, 1703904, 0, 0, 1703905, 0, 0, 1703906, 0, 0, 1703907, 0, 0, 1703908, 0, 0, 1703909, 0, 0, 1703910, 0, 0, 1703911, 0, 0, 1703912, 0, 0, 1703913, 0, 0, 1703914, 0, 0, 1703915, 0, 0, 1703916, 0, 0, 1703917, 0, 0, 1703918, 0, 0, 1703919, 0, 0, 1703920, 0, 0, 1703921, 0, 0, 1703922, 0, 65537, 1703923, 0, 3, 1703924, 0, 65539, 1703925, 0, 2, 1703926, 0, 3, 1703927, 0, 0, 1703928, 0, 0, 1703929, 0, 0, 1703930, 0, 0, 1703931, 0, 0, 1703932, 0, 0, 1703933, 0, 0, 1703934, 0, 0, 1703935, 0, 0, 1769450, 0, 0, 1769451, 0, 0, 1769452, 0, 0, 1769453, 0, 0, 1769454, 0, 0, 1769455, 0, 0, 1769456, 0, 0, 1769457, 0, 0, 1769458, 0, 0, 1769459, 0, 0, 1769460, 0, 0, 1769461, 0, 0, 1769462, 0, 0, 1769463, 0, 0, 1769464, 0, 0, 1769465, 0, 0, 1769466, 0, 0, 1769467, 0, 0, 1769468, 0, 0, 1769469, 0, 0, 1769470, 0, 0, 1769471, 0, 0, 1834986, 0, 0, 1834987, 0, 0, 1834988, 0, 0, 1834989, 0, 0, 1834990, 0, 0, 1834991, 0, 0, 1834992, 0, 0, 1834993, 0, 0, 1834994, 0, 0, 1834995, 0, 0, 1834996, 0, 0, 1834997, 0, 0, 1834998, 0, 0, 1834999, 0, 0, 1835000, 0, 0, 1835001, 0, 0, 1835002, 0, 0, 1835003, 0, 0, 1835004, 0, 0, 1835005, 0, 0, 1835006, 0, 0, 1835007, 0, 0, 1900522, 0, 0, 1900523, 0, 0, 1900524, 0, 0, 1900525, 0, 0, 1900526, 0, 0, 1900527, 0, 0, 1900528, 0, 0, 1900529, 0, 0, 1900530, 0, 0, 1900531, 0, 0, 1900532, 0, 0, 1900533, 0, 0, 1900534, 0, 0, 1900535, 0, 0, 1900536, 0, 0, 1900537, 0, 0, 1900538, 0, 0, 1900539, 0, 0, 1900540, 0, 0, 1900541, 0, 0, 1900542, 0, 0, 1900543, 0, 0, 1966058, 0, 0, 1966059, 0, 0, 1966060, 0, 0, 1966061, 0, 0, 1966062, 0, 0, 1966063, 0, 0, 1966064, 0, 0, 1966065, 0, 0, 1966066, 0, 0, 1966067, 0, 0, 1966068, 0, 0, 1966069, 0, 0, 1966070, 0, 0, 1966071, 0, 0, 1966072, 0, 0, 1966073, 0, 0, 1966074, 0, 0, 1966075, 0, 0, 1966076, 0, 0, 1966077, 0, 0, 1966078, 0, 0, 1966079, 0, 0, 2031594, 0, 0, 2031595, 0, 0, 2031596, 0, 0, 2031597, 0, 0, 2031598, 0, 0, 2031599, 0, 0, 2031600, 0, 0, 2031601, 0, 0, 2031602, 0, 0, 2031603, 0, 0, 2031604, 0, 0, 2031605, 0, 0, 2031606, 0, 0, 2031607, 0, 0, 2031608, 0, 0, 2031609, 0, 0, 2031610, 0, 0, 2031611, 0, 0, 2031612, 0, 0, 2031613, 0, 0, 2031614, 0, 0, 2031615, 0, 0 )

[node name="PlatformTileMap" type="TileMap" parent="."]
scale = Vector2( 4, 4 )
tile_set = SubResource( 17 )
cell_size = Vector2( 16, 16 )
collision_layer = 2
format = 1
tile_data = PoolIntArray( 131045, 1, 65537, 131046, 1, 65538, 196584, 2, 0, 196585, 0, 1, 196604, 0, 458759, 196605, 0, 393223, 131075, 0, 458759, 131076, 0, 458755, 131077, 0, 458752, 131078, 0, 458754, 262119, 0, 0, 262120, 2, 6, 262140, 2, 0, 262141, 2, 5, 262142, 2, 6, 196611, 2, 0, 196612, 2, 4, 196613, 2, 3, 196614, 2, 6, 196618, 0, 2, 327655, 0, 2, 327656, 1, 65536, 327657, 1, 65538, 262155, 0, 2, 262157, 1, 65536, 262158, 1, 65537, 262159, 1, 65538, 458731, 0, 2, 393224, 0, 1, 393228, 0, 2, 524274, 0, 0, 524279, 0, 2, 524283, 0, 0, 589816, 0, 0, 1245157, 0, 1, 1310705, 0, 1, 1310710, 2, 0 )

[node name="Player" parent="." instance=ExtResource( 2 )]
position = Vector2( 104, 416 )

[node name="Background" type="CanvasLayer" parent="."]
layer = -1

[node name="BackgroundSprite" type="Sprite" parent="Background"]
position = Vector2( 542.018, 293.441 )
scale = Vector2( 7, 7 )
texture = ExtResource( 3 )
__meta__ = {
"_edit_lock_": true
}

[node name="CanvasLayer" type="CanvasLayer" parent="."]

[node name="HealthBar" parent="CanvasLayer" instance=ExtResource( 5 )]
margin_left = 4.62492
margin_top = 5.04538
margin_right = 132.625
margin_bottom = 133.045

[node name="Spikes" type="Node2D" parent="."]

[node name="Spikes" parent="Spikes" instance=ExtResource( 4 )]
position = Vector2( -288, 480 )

[node name="Spikes2" parent="Spikes" instance=ExtResource( 4 )]
position = Vector2( -480, 544 )

[node name="Spikes3" parent="Spikes" instance=ExtResource( 4 )]
position = Vector2( -352, 480 )

[node name="Spikes4" parent="Spikes" instance=ExtResource( 4 )]
position = Vector2( -416, 480 )

[node name="Spikes5" parent="Spikes" instance=ExtResource( 4 )]
position = Vector2( -544, 544 )

[node name="Spikes6" parent="Spikes" instance=ExtResource( 4 )]
position = Vector2( -864, 480 )

[node name="Spikes7" parent="Spikes" instance=ExtResource( 4 )]
position = Vector2( -928, 480 )

[node name="Spikes8" parent="Spikes" instance=ExtResource( 4 )]
position = Vector2( -992, 480 )

[node name="Spikes9" parent="Spikes" instance=ExtResource( 4 )]
position = Vector2( -1056, 480 )

[node name="Spikes13" parent="Spikes" instance=ExtResource( 4 )]
position = Vector2( 544, 480 )

[node name="Spikes14" parent="Spikes" instance=ExtResource( 4 )]
position = Vector2( 608, 480 )
[connection signal="health_updated" from="Player" to="CanvasLayer/HealthBar" method="_on_health_updated"]
